<svg width="24" height="24" viewBox="0 0 24 24" fill="none" xmlns="http://www.w3.org/2000/svg">
<path fill-rule="evenodd" clip-rule="evenodd" d="M20 11H7.8L13.4 5.4L12 4L4 12L12 20L13.4 18.6L7.8 13H20V11Z" fill="black" fill-opacity="0.54"/>
<mask id="mask0" mask-type="alpha" maskUnits="userSpaceOnUse" x="4" y="4" width="16" height="16">
<path fill-rule="evenodd" clip-rule="evenodd" d="M20 11H7.8L13.4 5.4L12 4L4 12L12 20L13.4 18.6L7.8 13H20V11Z" fill="white"/>
</mask>
<g mask="url(#mask0)">
</g>
</svg>
