<svg xmlns="http://www.w3.org/2000/svg" xmlns:xlink="http://www.w3.org/1999/xlink" width="16" height="16" viewBox="0 0 16 16">
    <defs>
        <path id="a" d="M9 3c.276 0 .5.269.5.6l-.001 4.9H14.4c.331 0 .6.224.6.5s-.269.5-.6.5H9.499l.001 4.9c0 .331-.224.6-.5.6s-.5-.269-.5-.6l-.001-4.9H3.6c-.331 0-.6-.224-.6-.5s.269-.5.6-.5h4.899L8.5 3.6c0-.331.224-.6.5-.6z"/>
    </defs>
    <!-- <use  transform="rotate(45 9.707 7.293)" xlink:href="#a"/> -->
    <g transform="rotate(45 9.707 7.293)" >
        <use xlink:href="#a" fill="#FF5722" fill-rule="evenodd"></use>
    </g>
</svg>
