<svg xmlns="http://www.w3.org/2000/svg" width="24" height="24" viewBox="0 0 24 24">
    <path fill="#CCC" d="M19 2.5c1.38 0 2.5 1.12 2.5 2.5v14c0 1.38-1.12 2.5-2.5 2.5H5c-1.38 0-2.5-1.12-2.5-2.5V5c0-1.38 1.12-2.5 2.5-2.5zm0 1H5c-.828 0-1.5.672-1.5 1.5v14c0 .828.672 1.5 1.5 1.5h14c.828 0 1.5-.672 1.5-1.5V5c0-.828-.672-1.5-1.5-1.5z"/>
</svg>
